[api-updater (non-obsolete-error-filter)] 30-05-2021 12:54:24 : Starting F:/2020.3.9f1/Editor/Data/Tools/ScriptUpdater/APIUpdater.NonObsoleteApiUpdaterDetector.exe
[api-updater (non-obsolete-error-filter)] 
----------------------------------
jit/startup time      : 257.3044ms
moved types parse time: 60ms
candidates parse time : 1ms
C# parse time         : 217ms
candidates check time : 76ms
console write time    : 0ms

[api-updater (non-obsolete-error-filter)] 30-05-2021 12:54:51 : Starting F:/2020.3.9f1/Editor/Data/Tools/ScriptUpdater/APIUpdater.NonObsoleteApiUpdaterDetector.exe
[api-updater (non-obsolete-error-filter)] 
----------------------------------
jit/startup time      : 189.2113ms
moved types parse time: 50ms
candidates parse time : 1ms
C# parse time         : 175ms
candidates check time : 72ms
console write time    : 0ms

[api-updater (non-obsolete-error-filter)] 30-05-2021 12:55:03 : Starting F:/2020.3.9f1/Editor/Data/Tools/ScriptUpdater/APIUpdater.NonObsoleteApiUpdaterDetector.exe
[api-updater (non-obsolete-error-filter)] 
----------------------------------
jit/startup time      : 142.6124ms
moved types parse time: 50ms
candidates parse time : 1ms
C# parse time         : 200ms
candidates check time : 77ms
console write time    : 0ms

[api-updater (non-obsolete-error-filter)] 30-05-2021 20:36:59 : Starting F:/2020.3.9f1/Editor/Data/Tools/ScriptUpdater/APIUpdater.NonObsoleteApiUpdaterDetector.exe
[api-updater (non-obsolete-error-filter)] 
----------------------------------
jit/startup time      : 113.694ms
moved types parse time: 50ms
candidates parse time : 1ms
C# parse time         : 195ms
candidates check time : 40ms
console write time    : 0ms

